gcc -pthread -fno-strict-aliasing -DNDEBUG -g -fwrapv -O2 -Wall -Wstrict-prototypes -fPIC -I/usr/include/python2.7 -c build/temp.linux-armv6l-2.7/conftest-2.c -o build/temp.linux-armv6l-2.7/build/temp.linux-armv6l-2.7/conftest-2.o
unable to execute gcc: No such file or directory
gcc -pthread -fno-strict-aliasing -DNDEBUG -g -fwrapv -O2 -Wall -Wstrict-prototypes -fPIC -I/usr/include/python2.7 -c build/temp.linux-armv6l-2.7/conftest-3.c -o build/temp.linux-armv6l-2.7/build/temp.linux-armv6l-2.7/conftest-3.o
unable to execute gcc: No such file or directory
gcc -pthread -fno-strict-aliasing -DNDEBUG -g -fwrapv -O2 -Wall -Wstrict-prototypes -fPIC -I/usr/include/python2.7 -c build/temp.linux-armv6l-2.7/conftest-4.c -o build/temp.linux-armv6l-2.7/build/temp.linux-armv6l-2.7/conftest-4.o
unable to execute gcc: No such file or directory
gcc -pthread -fno-strict-aliasing -DNDEBUG -g -fwrapv -O2 -Wall -Wstrict-prototypes -fPIC -I/usr/include/python2.7 -c build/temp.linux-armv6l-2.7/conftest-5.c -o build/temp.linux-armv6l-2.7/build/temp.linux-armv6l-2.7/conftest-5.o
unable to execute gcc: No such file or directory
gcc -pthread -fno-strict-aliasing -DNDEBUG -g -fwrapv -O2 -Wall -Wstrict-prototypes -fPIC -I/usr/include/python2.7 -c build/temp.linux-armv6l-2.7/conftest-6.c -o build/temp.linux-armv6l-2.7/build/temp.linux-armv6l-2.7/conftest-6.o
unable to execute gcc: No such file or directory
gcc -pthread -fno-strict-aliasing -DNDEBUG -g -fwrapv -O2 -Wall -Wstrict-prototypes -fPIC -I/usr/include/python2.7 -c build/temp.linux-armv6l-2.7/conftest-7.c -o build/temp.linux-armv6l-2.7/build/temp.linux-armv6l-2.7/conftest-7.o
unable to execute gcc: No such file or directory
gcc -pthread -fno-strict-aliasing -DNDEBUG -g -fwrapv -O2 -Wall -Wstrict-prototypes -fPIC -I/usr/include/python2.7 -c build/temp.linux-armv6l-2.7/conftest-8.c -o build/temp.linux-armv6l-2.7/build/temp.linux-armv6l-2.7/conftest-8.o
unable to execute gcc: No such file or directory
gcc -pthread -fno-strict-aliasing -DNDEBUG -g -fwrapv -O2 -Wall -Wstrict-prototypes -fPIC -I/usr/include/python2.7 -c build/temp.linux-armv6l-2.7/conftest-9.c -o build/temp.linux-armv6l-2.7/build/temp.linux-armv6l-2.7/conftest-9.o
unable to execute gcc: No such file or directory
gcc -pthread -fno-strict-aliasing -DNDEBUG -g -fwrapv -O2 -Wall -Wstrict-prototypes -fPIC -I/usr/include/python2.7 -c build/temp.linux-armv6l-2.7/conftest-10.c -o build/temp.linux-armv6l-2.7/build/temp.linux-armv6l-2.7/conftest-10.o
unable to execute gcc: No such file or directory
gcc -pthread -fno-strict-aliasing -DNDEBUG -g -fwrapv -O2 -Wall -Wstrict-prototypes -fPIC -I/usr/include/python2.7 -c build/temp.linux-armv6l-2.7/conftest-11.c -o build/temp.linux-armv6l-2.7/build/temp.linux-armv6l-2.7/conftest-11.o
unable to execute gcc: No such file or directory
gcc -pthread -fno-strict-aliasing -DNDEBUG -g -fwrapv -O2 -Wall -Wstrict-prototypes -fPIC -I/usr/include/python2.7 -c build/temp.linux-armv6l-2.7/conftest-12.c -o build/temp.linux-armv6l-2.7/build/temp.linux-armv6l-2.7/conftest-12.o
unable to execute gcc: No such file or directory
gcc -pthread -fno-strict-aliasing -DNDEBUG -g -fwrapv -O2 -Wall -Wstrict-prototypes -fPIC -I/usr/include/python2.7 -c build/temp.linux-armv6l-2.7/conftest-13.c -o build/temp.linux-armv6l-2.7/build/temp.linux-armv6l-2.7/conftest-13.o
unable to execute gcc: No such file or directory
gcc -pthread -fno-strict-aliasing -DNDEBUG -g -fwrapv -O2 -Wall -Wstrict-prototypes -fPIC -I/usr/include/python2.7 -c build/temp.linux-armv6l-2.7/conftest-14.c -o build/temp.linux-armv6l-2.7/build/temp.linux-armv6l-2.7/conftest-14.o
unable to execute gcc: No such file or directory
gcc -pthread -fno-strict-aliasing -DNDEBUG -g -fwrapv -O2 -Wall -Wstrict-prototypes -fPIC -I/usr/include/python2.7 -c build/temp.linux-armv6l-2.7/conftest-15.c -o build/temp.linux-armv6l-2.7/build/temp.linux-armv6l-2.7/conftest-15.o
unable to execute gcc: No such file or directory
gcc -pthread -fno-strict-aliasing -DNDEBUG -g -fwrapv -O2 -Wall -Wstrict-prototypes -fPIC -I/usr/include/python2.7 -c build/temp.linux-armv6l-2.7/conftest-16.c -o build/temp.linux-armv6l-2.7/build/temp.linux-armv6l-2.7/conftest-16.o
unable to execute gcc: No such file or directory
gcc -pthread -fno-strict-aliasing -DNDEBUG -g -fwrapv -O2 -Wall -Wstrict-prototypes -fPIC -I/usr/include/python2.7 -c build/temp.linux-armv6l-2.7/conftest-17.c -o build/temp.linux-armv6l-2.7/build/temp.linux-armv6l-2.7/conftest-17.o
unable to execute gcc: No such file or directory
gcc -pthread -fno-strict-aliasing -DNDEBUG -g -fwrapv -O2 -Wall -Wstrict-prototypes -fPIC -I/usr/include/python2.7 -c build/temp.linux-armv6l-2.7/conftest-18.c -o build/temp.linux-armv6l-2.7/build/temp.linux-armv6l-2.7/conftest-18.o
unable to execute gcc: No such file or directory
gcc -pthread -fno-strict-aliasing -DNDEBUG -g -fwrapv -O2 -Wall -Wstrict-prototypes -fPIC -I/usr/include/python2.7 -c build/temp.linux-armv6l-2.7/conftest-19.c -o build/temp.linux-armv6l-2.7/build/temp.linux-armv6l-2.7/conftest-19.o
unable to execute gcc: No such file or directory
gcc -pthread -fno-strict-aliasing -DNDEBUG -g -fwrapv -O2 -Wall -Wstrict-prototypes -fPIC -I/usr/include/python2.7 -c build/temp.linux-armv6l-2.7/conftest-20.c -o build/temp.linux-armv6l-2.7/build/temp.linux-armv6l-2.7/conftest-20.o
unable to execute gcc: No such file or directory
gcc -pthread -fno-strict-aliasing -DNDEBUG -g -fwrapv -O2 -Wall -Wstrict-prototypes -fPIC -I/usr/include/python2.7 -c build/temp.linux-armv6l-2.7/conftest-21.c -o build/temp.linux-armv6l-2.7/build/temp.linux-armv6l-2.7/conftest-21.o
unable to execute gcc: No such file or directory
gcc -pthread -fno-strict-aliasing -DNDEBUG -g -fwrapv -O2 -Wall -Wstrict-prototypes -fPIC -I/usr/include/python2.7 -c build/temp.linux-armv6l-2.7/conftest-22.c -o build/temp.linux-armv6l-2.7/build/temp.linux-armv6l-2.7/conftest-22.o
unable to execute gcc: No such file or directory
gcc -pthread -fno-strict-aliasing -DNDEBUG -g -fwrapv -O2 -Wall -Wstrict-prototypes -fPIC -I/usr/include/python2.7 -c build/temp.linux-armv6l-2.7/conftest-23.c -o build/temp.linux-armv6l-2.7/build/temp.linux-armv6l-2.7/conftest-23.o
unable to execute gcc: No such file or directory
gcc -pthread -fno-strict-aliasing -DNDEBUG -g -fwrapv -O2 -Wall -Wstrict-prototypes -fPIC -I/usr/include/python2.7 -c build/temp.linux-armv6l-2.7/conftest-24.c -o build/temp.linux-armv6l-2.7/build/temp.linux-armv6l-2.7/conftest-24.o
unable to execute gcc: No such file or directory
gcc -pthread -fno-strict-aliasing -DNDEBUG -g -fwrapv -O2 -Wall -Wstrict-prototypes -fPIC -I/usr/include/python2.7 -c build/temp.linux-armv6l-2.7/conftest-25.c -o build/temp.linux-armv6l-2.7/build/temp.linux-armv6l-2.7/conftest-25.o
unable to execute gcc: No such file or directory
gcc -pthread -fno-strict-aliasing -DNDEBUG -g -fwrapv -O2 -Wall -Wstrict-prototypes -fPIC -I/usr/include/python2.7 -c build/temp.linux-armv6l-2.7/conftest-26.c -o build/temp.linux-armv6l-2.7/build/temp.linux-armv6l-2.7/conftest-26.o
unable to execute gcc: No such file or directory
